%YAML 1.1
%TAG !u! tag:unity3d.com,2011:
--- !u!114 &11400000
MonoBehaviour:
  m_ObjectHideFlags: 0
  m_CorrespondingSourceObject: {fileID: 0}
  m_PrefabInstance: {fileID: 0}
  m_PrefabAsset: {fileID: 0}
  m_GameObject: {fileID: 0}
  m_Enabled: 1
  m_EditorHideFlags: 0
  m_Script: {fileID: 11500000, guid: 6993eb35cf2aaa14c8a1c88a5dd44b57, type: 3}
  m_Name: Knife
  m_EditorClassIdentifier: 
  weaponName: Knife
  attackDamage: 0
  attackForce: 10
  attackSpd: 0.3
  attackRange: 0
  art: {fileID: 21300000, guid: c2f0536a0535f2d48842f8525beb4bb6, type: 3}
